{
    "cordova-plugin-device": {
        "source": {
            "type": "registry",
            "id": "cordova-plugin-device"
        },
        "is_top_level": true,
        "variables": {}
    },
    "cordova-plugin-console": {
        "source": {
            "type": "registry",
            "id": "cordova-plugin-console"
        },
        "is_top_level": true,
        "variables": {}
    },
    "cordova-plugin-whitelist": {
        "source": {
            "type": "registry",
            "id": "cordova-plugin-whitelist"
        },
        "is_top_level": true,
        "variables": {}
    },
    "cordova-plugin-splashscreen": {
        "source": {
            "type": "registry",
            "id": "cordova-plugin-splashscreen"
        },
        "is_top_level": true,
        "variables": {}
    },
    "cordova-plugin-statusbar": {
        "source": {
            "type": "registry",
            "id": "cordova-plugin-statusbar"
        },
        "is_top_level": true,
        "variables": {}
    },
    "ionic-plugin-keyboard": {
        "source": {
            "type": "registry",
            "id": "ionic-plugin-keyboard"
        },
        "is_top_level": true,
        "variables": {}
    },
    "phonegap-facebook-plugin": {
        "source": {
            "type": "local",
            "path": "/Users/lucius/work/Coaching_days_lucius/phonegap-facebook-plugin"
        },
        "is_top_level": true,
        "variables": {
            "APP_ID": "248092518870330",
            "APP_NAME": "ionicdaysg"
        }
    },
    "cordova-plugin-geolocation": {
        "source": {
            "type": "registry",
            "id": "cordova-plugin-geolocation"
        },
        "is_top_level": true,
        "variables": {}
    },
    "cordova-plugin-image-picker": {
        "source": {
            "type": "registry",
            "id": "cordova-plugin-image-picker"
        },
        "is_top_level": true,
        "variables": {}
    }
}